jadecuttle@hotmail.co.uk,,,,,,,,,,,,,,,,,,,,,,,,
chloe.m.gordon@hotmail.com,,,,,,,,,,,,,,,,,,,,,,,,
ahewettemmett@gmail.com,,,,,,,,,,,,,,,,,,,,,,,,
amj.rouse@gmail.com,,,,,,,,,,,,,,,,,,,,,,,,
lucyfrancesgalvin@gmail.com,,,,,,,,,,,,,,,,,,,,,,,,
louisekbell@hotmail.co.uk,,,,,,,,,,,,,,,,,,,,,,,,
maire_grieves@yahoo.co.uk,,,,,,,,,,,,,,,,,,,,,,,,
lucyholden@hotmail.com,,,,,,,,,,,,,,,,,,,,,,,,
poppydevlin@hotmail.co.uk,,,,,,,,,,,,,,,,,,,,,,,,
citruspolo@hotmail.com,,,,,,,,,,,,,,,,,,,,,,,,
zoe0483@hotmail.co.uk,,,,,,,,,,,,,,,,,,,,,,,,
isobel.s.webster@gmail.com,,,,,,,,,,,,,,,,,,,,,,,,
roqueeee@yahoo.es,,,,,,,,,,,,,,,,,,,,,,,,
mattbann@live.co.uk,,,,,,,,,,,,,,,,,,,,,,,,
simoncurston007@msn.com,,,,,,,,,,,,,,,,,,,,,,,,
CT21599@hotmail.co.uk,,,,,,,,,,,,,,,,,,,,,,,,
aklilebereket@outlook.com,,,,,,,,,,,,,,,,,,,,,,,,
mbdorgan@talktalk.net,,,,,,,,,,,,,,,,,,,,,,,,
KARE.mc@LIVE.co.uk,,,,,,,,,,,,,,,,,,,,,,,,
hgtsandrine@gmail.com,,,,,,,,,,,,,,,,,,,,,,,,
emmamoughton1@gmail.com,,,,,,,,,,,,,,,,,,,,,,,,
turlsfish77@gmail.com,,,,,,,,,,,,,,,,,,,,,,,,
nickraffe@yahoo.co.uk,,,,,,,,,,,,,,,,,,,,,,,,
ruthrclarke@gmail.com,,,,,,,,,,,,,,,,,,,,,,,,
ronscally@hotmail.com,,,,,,,,,,,,,,,,,,,,,,,,
drnavin1uk@yahoo.co.uk,,,,,,,,,,,,,,,,,,,,,,,,
paullynch025@gmail.com,,,,,,,,,,,,,,,,,,,,,,,,
laura.rachel.evans@gmail.com,,,,,,,,,,,,,,,,,,,,,,,,
avrilwelbank@yahoo.co.uk,,,,,,,,,,,,,,,,,,,,,,,,
mandy.webb@btinternet.com,,,,,,,,,,,,,,,,,,,,,,,,
ian.d.hamilton@btinternet.com,,,,,,,,,,,,,,,,,,,,,,,,
hmpepper0319@googlemail.com,,,,,,,,,,,,,,,,,,,,,,,,
abby.campling@icloud.com,,,,,,,,,,,,,,,,,,,,,,,,
oneangel@btinternet.com,,,,,,,,,,,,,,,,,,,,,,,,
e.crompton1976@gmail.com,,,,,,,,,,,,,,,,,,,,,,,,
elainecdsmith@yahoo.co.uk,,,,,,,,,,,,,,,,,,,,,,,,
k.uice19@gmail.com,,,,,,,,,,,,,,,,,,,,,,,,
hgm.edi@gmail.com,,,,,,,,,,,,,,,,,,,,,,,,
thomas.d.martin@doctors.org.uk,,,,,,,,,,,,,,,,,,,,,,,,
rbharding95@gmail.com,,,,,,,,,,,,,,,,,,,,,,,,
Bezzie21@hotmail.com,,,,,,,,,,,,,,,,,,,,,,,,
eilish.turrell@gmail.com,,,,,,,,,,,,,,,,,,,,,,,,
rrebeccafrance@gmail.com,,,,,,,,,,,,,,,,,,,,,,,,
rtom59@gmail.com,,,,,,,,,,,,,,,,,,,,,,,,
achilvers@hotmail.co.uk,,,,,,,,,,,,,,,,,,,,,,,,
kevinabatch@gmail.com,,,,,,,,,,,,,,,,,,,,,,,,
tracyattree@btinternet.com,,,,,,,,,,,,,,,,,,,,,,,,
andrebarber1@live.co.uk,,,,,,,,,,,,,,,,,,,,,,,,
njokiyaxley@gmail.com,,,,,,,,,,,,,,,,,,,,,,,,
cathewitt74@hotmail.com,,,,,,,,,,,,,,,,,,,,,,,,
lettie@suelamberttrust.org,,,,,,,,,,,,,,,,,,,,,,,,
rashmi_b_m@yahoo.com,,,,,,,,,,,,,,,,,,,,,,,,
leigh.susan@sky.com,,,,,,,,,,,,,,,,,,,,,,,,
carljameschell@googlemail.com,,,,,,,,,,,,,,,,,,,,,,,,
mountain353@gmail.com,,,,,,,,,,,,,,,,,,,,,,,,
relax@jasonmassage.co.uk,,,,,,,,,,,,,,,,,,,,,,,,
aaronfickling@icloud.com,,,,,,,,,,,,,,,,,,,,,,,,
stphnjhrrs@hotmail.com,,,,,,,,,,,,,,,,,,,,,,,,
catarinaportugal@hotmail.com,,,,,,,,,,,,,,,,,,,,,,,,
clodaghemma@gmail.com,,,,,,,,,,,,,,,,,,,,,,,,
sophie.yeomans@btinternet.com,,,,,,,,,,,,,,,,,,,,,,,,
lyndatipple422@gmail.com,,,,,,,,,,,,,,,,,,,,,,,,
tina.worboyes@ntlworld.com,,,,,,,,,,,,,,,,,,,,,,,,
kellybelly_uk@yahoo.com,,,,,,,,,,,,,,,,,,,,,,,,
claire_bish@outlook.com,,,,,,,,,,,,,,,,,,,,,,,,
robskilton@hotmail.com,,,,,,,,,,,,,,,,,,,,,,,,
alexsalvadoreocampo@gmail.com,,,,,,,,,,,,,,,,,,,,,,,,
corrinaapplegate3@hotmail.com,,,,,,,,,,,,,,,,,,,,,,,,
danmarkok89@gmail.com,,,,,,,,,,,,,,,,,,,,,,,,
annyounng@gmail.com,,,,,,,,,,,,,,,,,,,,,,,,
zia.gifkins@gmail.com,,,,,,,,,,,,,,,,,,,,,,,,
emmahendry28@hotmail.co.uk,,,,,,,,,,,,,,,,,,,,,,,,
theleefosters@gmail.com,,,,,,,,,,,,,,,,,,,,,,,,
tellheidi@hotmail.com,,,,,,,,,,,,,,,,,,,,,,,,
sonia@technofriendly.com,,,,,,,,,,,,,,,,,,,,,,,,
adamcunningham107@btinternet.com,,,,,,,,,,,,,,,,,,,,,,,,
Karenjebbsturges@gmail.com,,,,,,,,,,,,,,,,,,,,,,,,
emmaeversden@gmail.com,,,,,,,,,,,,,,,,,,,,,,,,
sabine.grath@gmx.at,,,,,,,,,,,,,,,,,,,,,,,,
Michaelmcclean47@hotmail.co.uk,,,,,,,,,,,,,,,,,,,,,,,,
sue.buller@gmail.com,,,,,,,,,,,,,,,,,,,,,,,,
FLEUR.LOUISE.88@HOTMAIL.CO.UK,,,,,,,,,,,,,,,,,,,,,,,,
hazelhargreaves1@gmail.com,,,,,,,,,,,,,,,,,,,,,,,,
Humbug-S2@outlook.com,,,,,,,,,,,,,,,,,,,,,,,,
nbvitalspark@hotmail.co.uk,,,,,,,,,,,,,,,,,,,,,,,,
mrdanieljohnoliver2@yahoo.com,,,,,,,,,,,,,,,,,,,,,,,,
Vbreflex@gmail.com,,,,,,,,,,,,,,,,,,,,,,,,
sarahgale2011@hotmail.co.uk,,,,,,,,,,,,,,,,,,,,,,,,
satyalila@gmail.com,,,,,,,,,,,,,,,,,,,,,,,,
Natalie.fox12@hotmail.co.uk,,,,,,,,,,,,,,,,,,,,,,,,
margaretcooper704@icloud.com,,,,,,,,,,,,,,,,,,,,,,,,
norfolkgraham@yahoo.co.uk,,,,,,,,,,,,,,,,,,,,,,,,
dix506@live.com,,,,,,,,,,,,,,,,,,,,,,,,
benjamin.jack.marshall.bm@gmail.com,,,,,,,,,,,,,,,,,,,,,,,,
bearspicnic@yahoo.co.uk,,,,,,,,,,,,,,,,,,,,,,,,
lindamaydiver@icloud.com,,,,,,,,,,,,,,,,,,,,,,,,
terrylitton123@gmail.com,,,,,,,,,,,,,,,,,,,,,,,,
robertlancaster68@gmail.com,,,,,,,,,,,,,,,,,,,,,,,,
becks.hylton@gmail.com,,,,,,,,,,,,,,,,,,,,,,,,
sophieann_93@yahoo.co.uk,,,,,,,,,,,,,,,,,,,,,,,,
keithpfletcher@outlook.com,,,,,,,,,,,,,,,,,,,,,,,,
alan.t.ward@ntlworld.com,,,,,,,,,,,,,,,,,,,,,,,,
Chrissidking@gmail.com,,,,,,,,,,,,,,,,,,,,,,,,
Krol_richard@hotmail.com,,,,,,,,,,,,,,,,,,,,,,,,
Amber.mooney@live.com,,,,,,,,,,,,,,,,,,,,,,,,
Fiona.maccann@icloud.com,,,,,,,,,,,,,,,,,,,,,,,,
rightme6@gmail.com,,,,,,,,,,,,,,,,,,,,,,,,
Lisa.robins@gmail.com,,,,,,,,,,,,,,,,,,,,,,,,
samanthacc3@aol.com,,,,,,,,,,,,,,,,,,,,,,,,
odiseasn@hotmail.com,,,,,,,,,,,,,,,,,,,,,,,,
ormeric@gmail.com,,,,,,,,,,,,,,,,,,,,,,,,
kbab4@aol.com,,,,,,,,,,,,,,,,,,,,,,,,
philsmith492@outlook.com,,,,,,,,,,,,,,,,,,,,,,,,
junepaule@hotmail.com,,,,,,,,,,,,,,,,,,,,,,,,
thoswjackson@gmail.com,,,,,,,,,,,,,,,,,,,,,,,,
pauline.r.tomlinson@gmail.com,,,,,,,,,,,,,,,,,,,,,,,,
rayatkins@hotmail.co.uk,,,,,,,,,,,,,,,,,,,,,,,,
petervshelley@gmail.com,,,,,,,,,,,,,,,,,,,,,,,,
lynne.morgan248@gmail.com,,,,,,,,,,,,,,,,,,,,,,,,
janereeves0608@gmail.com,,,,,,,,,,,,,,,,,,,,,,,,
nicolajmcintyre@gmail.com,,,,,,,,,,,,,,,,,,,,,,,,
pj.bland@btinternet.com,,,,,,,,,,,,,,,,,,,,,,,,
chrismikewood@gmail.com,,,,,,,,,,,,,,,,,,,,,,,,
t.a.oshea@gmail.com,,,,,,,,,,,,,,,,,,,,,,,,
cazzarouse@gmail.com,,,,,,,,,,,,,,,,,,,,,,,,
franrose1980@hotmail.co.uk,,,,,,,,,,,,,,,,,,,,,,,,
jacqbar@btinternet.com,,,,,,,,,,,,,,,,,,,,,,,,
jackiespalding2@hotmail.com,,,,,,,,,,,,,,,,,,,,,,,,
daniel.crowe@icloud.com,,,,,,,,,,,,,,,,,,,,,,,,
charliebliss09@gmail.com,,,,,,,,,,,,,,,,,,,,,,,,
bethanharvey@hotmail.com,,,,,,,,,,,,,,,,,,,,,,,,
cpt2013@icloud.com,,,,,,,,,,,,,,,,,,,,,,,,
paramet.1340@gmail.com,,,,,,,,,,,,,,,,,,,,,,,,
hamcbarron@gmail.com,,,,,,,,,,,,,,,,,,,,,,,,
Helen.parsley@yahoo.co.uk,,,,,,,,,,,,,,,,,,,,,,,,
Kazoflan@gmail.com,,,,,,,,,,,,,,,,,,,,,,,,
dougfreeman@outlook.com,,,,,,,,,,,,,,,,,,,,,,,,
Sarah@pilatessuffolk.com,,,,,,,,,,,,,,,,,,,,,,,,
jessicajbannister@gmail.com,,,,,,,,,,,,,,,,,,,,,,,,
pam.brown509@googlemail.com,,,,,,,,,,,,,,,,,,,,,,,,
kingyio@hotmail.com,,,,,,,,,,,,,,,,,,,,,,,,
pellis104@gmail.com,,,,,,,,,,,,,,,,,,,,,,,,
lynnrackham@btopenworld.com,,,,,,,,,,,,,,,,,,,,,,,,
charlotte.wheatland@outlook.com,,,,,,,,,,,,,,,,,,,,,,,,
robnorwich1980@gmail.com,,,,,,,,,,,,,,,,,,,,,,,,
navdowling@hotmail.com,,,,,,,,,,,,,,,,,,,,,,,,
s.slorach@gmail.com,,,,,,,,,,,,,,,,,,,,,,,,
andy.01smith@gmail.com,,,,,,,,,,,,,,,,,,,,,,,,
mariamanlyyoga@gmail.com,,,,,,,,,,,,,,,,,,,,,,,,
nick1_b@hotmail.co.uk,,,,,,,,,,,,,,,,,,,,,,,,
kevinpsnelling@btinternet.com,,,,,,,,,,,,,,,,,,,,,,,,
stickypins09@gmail.com,,,,,,,,,,,,,,,,,,,,,,,,
bishybees.tara@gmail.com,,,,,,,,,,,,,,,,,,,,,,,,
Tim.wright@hotmail.co.uk,,,,,,,,,,,,,,,,,,,,,,,,
sueryan66@yahoo.co.uk,,,,,,,,,,,,,,,,,,,,,,,,
wstewart.1966@gmail.com,,,,,,,,,,,,,,,,,,,,,,,,
mrgrantburton@btinternet.com,,,,,,,,,,,,,,,,,,,,,,,,
Emilysarah2012@gmail.com,,,,,,,,,,,,,,,,,,,,,,,,
emmahamilton90@hotmail.com,,,,,,,,,,,,,,,,,,,,,,,,
ian.mallandain@btinternet.com,,,,,,,,,,,,,,,,,,,,,,,,
danbobs27@gmail.com,,,,,,,,,,,,,,,,,,,,,,,,
skanicmentality@hotmail.co.uk,,,,,,,,,,,,,,,,,,,,,,,,
t.allard@icloud.com,,,,,,,,,,,,,,,,,,,,,,,,
cpgruchy@gmail.com,,,,,,,,,,,,,,,,,,,,,,,,
kathy1reland@hotmail.co.uk,,,,,,,,,,,,,,,,,,,,,,,,
mattdolan11@yahoo.com,,,,,,,,,,,,,,,,,,,,,,,,
marijaiko@gmail.com,,,,,,,,,,,,,,,,,,,,,,,,
evanstheplumber@gmail.com,,,,,,,,,,,,,,,,,,,,,,,,
njohns68@gmail.com,,,,,,,,,,,,,,,,,,,,,,,,
cappsteresa@yahoo.co.uk,,,,,,,,,,,,,,,,,,,,,,,,
hl12971@my.bristol.ac.uk,,,,,,,,,,,,,,,,,,,,,,,,
sophieblake@hotmail.com,,,,,,,,,,,,,,,,,,,,,,,,
stv_mhny@yahoo.co.uk,,,,,,,,,,,,,,,,,,,,,,,,
sarra.odonnell@gmail.com,,,,,,,,,,,,,,,,,,,,,,,,
Trishboyton@live.com,,,,,,,,,,,,,,,,,,,,,,,,
aringwood26@hotmail.co.uk,,,,,,,,,,,,,,,,,,,,,,,,
esmeholtom@yahoo.co.uk,,,,,,,,,,,,,,,,,,,,,,,,
katherine1970@icloud.com,,,,,,,,,,,,,,,,,,,,,,,,
alice.milton@hotmail.co.uk,,,,,,,,,,,,,,,,,,,,,,,,
lhorey@sky.com,,,,,,,,,,,,,,,,,,,,,,,,
johnnoble234@yahoo.co.uk,,,,,,,,,,,,,,,,,,,,,,,,
jon.clitheroe@live.co.uk,,,,,,,,,,,,,,,,,,,,,,,,
network6uk@gmail.com,,,,,,,,,,,,,,,,,,,,,,,,
gavin.holmes@outlook.com,,,,,,,,,,,,,,,,,,,,,,,,
phillip_davies@hotmail.co.uk,,,,,,,,,,,,,,,,,,,,,,,,
rhiben88@gmail.com,,,,,,,,,,,,,,,,,,,,,,,,
sharonthomson1@outlook.com,,,,,,,,,,,,,,,,,,,,,,,,
burntfingers76@gmail.com,,,,,,,,,,,,,,,,,,,,,,,,
anthonydturner@yahoo.co.uk,,,,,,,,,,,,,,,,,,,,,,,,
robert.curtis@btclick.com,,,,,,,,,,,,,,,,,,,,,,,,
anneirwen@gmail.com,,,,,,,,,,,,,,,,,,,,,,,,
melanie@lilubella.co.uk,,,,,,,,,,,,,,,,,,,,,,,,
hcaseymour@gmail.com,,,,,,,,,,,,,,,,,,,,,,,,
flosrey@gmail.com,,,,,,,,,,,,,,,,,,,,,,,,
bryony.jacklin@hotmail.com,,,,,,,,,,,,,,,,,,,,,,,,
loisjp74@hotmail.co.uk,,,,,,,,,,,,,,,,,,,,,,,,
srachel448@gmail.com,,,,,,,,,,,,,,,,,,,,,,,,
angelgoymer@hotmail.co.uk,,,,,,,,,,,,,,,,,,,,,,,,
clare.gay@btinternet.com,,,,,,,,,,,,,,,,,,,,,,,,
little_little_lady@hotmail.co.uk,,,,,,,,,,,,,,,,,,,,,,,,
brigitshields@yahoo.co.uk,,,,,,,,,,,,,,,,,,,,,,,,
monnyroffey@yahoo.com,,,,,,,,,,,,,,,,,,,,,,,,
lerros85@hotmail.com,,,,,,,,,,,,,,,,,,,,,,,,
lizrighton@gmail.com,,,,,,,,,,,,,,,,,,,,,,,,
mmicomley@gmail.com,,,,,,,,,,,,,,,,,,,,,,,,
bevwoolnough@yahoo.co.uk,,,,,,,,,,,,,,,,,,,,,,,,
abiewabisabi@yahoo.co.uk,,,,,,,,,,,,,,,,,,,,,,,,
netti.lake@outlook.com,,,,,,,,,,,,,,,,,,,,,,,,
clow3006@hotmail.com,,,,,,,,,,,,,,,,,,,,,,,,
vidyavacin@gmail.com,,,,,,,,,,,,,,,,,,,,,,,,
janerondot@outlook.com,,,,,,,,,,,,,,,,,,,,,,,,
jennyhaycocks@gmail.com,,,,,,,,,,,,,,,,,,,,,,,,
lesleywebdale@btinternet.com,,,,,,,,,,,,,,,,,,,,,,,,
jan@falconmail.co.uk,,,,,,,,,,,,,,,,,,,,,,,,
peter.schrank@zen.co.uk,,,,,,,,,,,,,,,,,,,,,,,,
lydiasquire@me.com,,,,,,,,,,,,,,,,,,,,,,,,
illustratorjess@hotmail.com,,,,,,,,,,,,,,,,,,,,,,,,
elfcraft@live.co.uk,,,,,,,,,,,,,,,,,,,,,,,,
jude.arnfield@me.com,,,,,,,,,,,,,,,,,,,,,,,,
janperkins67@gmail.com,,,,,,,,,,,,,,,,,,,,,,,,
mmsjoyce@hotmail.com,,,,,,,,,,,,,,,,,,,,,,,,
andyjarrettsculptor@gmail.com,,,,,,,,,,,,,,,,,,,,,,,,
joshureplied@yahoo.co.uk,,,,,,,,,,,,,,,,,,,,,,,,
lynnie09@me.com,,,,,,,,,,,,,,,,,,,,,,,,
veronicazappia@hotmail.co.uk,,,,,,,,,,,,,,,,,,,,,,,,
dottyeel@gmail.com,,,,,,,,,,,,,,,,,,,,,,,,
nealshave@rocketmail.com,,,,,,,,,,,,,,,,,,,,,,,,
andrewcmillar@hotmail.co.uk,,,,,,,,,,,,,,,,,,,,,,,,
eleanor.keates@yahoo.com,,,,,,,,,,,,,,,,,,,,,,,,
valyjules@gmail.com,,,,,,,,,,,,,,,,,,,,,,,,
gretel.hallett@virginmedia.com,,,,,,,,,,,,,,,,,,,,,,,,
frenchmanindalston@gmail.com,,,,,,,,,,,,,,,,,,,,,,,,
bucklui35@gmail.com,,,,,,,,,,,,,,,,,,,,,,,,
arjhutcheson@gmail.com,,,,,,,,,,,,,,,,,,,,,,,,
abslee@btinternet.com,,,,,,,,,,,,,,,,,,,,,,,,
hughrout@btinternet.com,,,,,,,,,,,,,,,,,,,,,,,,
info@mollynaylor.com,,,,,,,,,,,,,,,,,,,,,,,,
clareprecey@yahoo.co.uk,,,,,,,,,,,,,,,,,,,,,,,,
yogafolk@icloud.com,,,,,,,,,,,,,,,,,,,,,,,,
leslie.may1@btopenworld.com,,,,,,,,,,,,,,,,,,,,,,,,
agagab73@gmail.com,,,,,,,,,,,,,,,,,,,,,,,,
joanneedney@hotmail.co.uk,,,,,,,,,,,,,,,,,,,,,,,,
kevinbeckett1@gmail.com,,,,,,,,,,,,,,,,,,,,,,,,
padmadaka@icloud.com,,,,,,,,,,,,,,,,,,,,,,,,
bland9michael@yahoo.co.uk,,,,,,,,,,,,,,,,,,,,,,,,
katiejustkatie@hotmail.co.uk,,,,,,,,,,,,,,,,,,,,,,,,
hester@dubhe.net,,,,,,,,,,,,,,,,,,,,,,,,
andrew_chafer@hotmail.com,,,,,,,,,,,,,,,,,,,,,,,,
geofdwillis@hotmail.co.uk,,,,,,,,,,,,,,,,,,,,,,,,
nino.caputo@btinternet.com,,,,,,,,,,,,,,,,,,,,,,,,
carolynroots21@gmail.com,,,,,,,,,,,,,,,,,,,,,,,,
stuarthurry@yahoo.co.uk,,,,,,,,,,,,,,,,,,,,,,,,
simonfaradaydrake@gmail.com,,,,,,,,,,,,,,,,,,,,,,,,
susea2@hotmail.com,,,,,,,,,,,,,,,,,,,,,,,,
debbieharding3101@hotmail.com,,,,,,,,,,,,,,,,,,,,,,,,
sebastiana.m.black@gmail.com,,,,,,,,,,,,,,,,,,,,,,,,
rob.black73@gmail.com,,,,,,,,,,,,,,,,,,,,,,,,
annliving@hotmail.com,,,,,,,,,,,,,,,,,,,,,,,,
kim.sadler29@icloud.com,,,,,,,,,,,,,,,,,,,,,,,,
hannahmafae@gmail.com,,,,,,,,,,,,,,,,,,,,,,,,
thesoupdragons@gmail.com,,,,,,,,,,,,,,,,,,,,,,,,
a.grubb@live.com,,,,,,,,,,,,,,,,,,,,,,,,
erikachalkley@yahoo.com,,,,,,,,,,,,,,,,,,,,,,,,
layla.night@googlemail.com,,,,,,,,,,,,,,,,,,,,,,,,
theycallmeluis@gmail.com,,,,,,,,,,,,,,,,,,,,,,,,
platts1003@yahoo.com,,,,,,,,,,,,,,,,,,,,,,,,
kalyanasri@gmail.com,,,,,,,,,,,,,,,,,,,,,,,,
asluckin@aol.com,,,,,,,,,,,,,,,,,,,,,,,,
gledhill.nick@gmail.com,,,,,,,,,,,,,,,,,,,,,,,,
shetlybustran@hotmail.com,,,,,,,,,,,,,,,,,,,,,,,,
danielle.king1@live.com,,,,,,,,,,,,,,,,,,,,,,,,
cmlwickens@hotmail.co.uk,,,,,,,,,,,,,,,,,,,,,,,,
charley76@hotmail.com,,,,,,,,,,,,,,,,,,,,,,,,
paulinesayhi@gmail.com,,,,,,,,,,,,,,,,,,,,,,,,
patterson_stella@hotmail.com,,,,,,,,,,,,,,,,,,,,,,,,
susanhughes2012@yahoo.co.uk,,,,,,,,,,,,,,,,,,,,,,,,
liz.hepp@yahoo.co.uk,,,,,,,,,,,,,,,,,,,,,,,,
rjaykerr@gmail.com,,,,,,,,,,,,,,,,,,,,,,,,
info@norwichbuddhistcentre.com,,,,,,,,,,,,,,,,,,,,,,,,
shraddhadhi@gmail.com,,,,,,,,,,,,,,,,,,,,,,,,
jason.wymer@sky.com,,,,,,,,,,,,,,,,,,,,,,,,
rach3w@gmail.com,,,,,,,,,,,,,,,,,,,,,,,,
rhoda.wolf@hotmail.co.uk,,,,,,,,,,,,,,,,,,,,,,,,
gemmacharlotte@hotmail.com,,,,,,,,,,,,,,,,,,,,,,,,
sj2whiteley@gmail.com,,,,,,,,,,,,,,,,,,,,,,,,
miles.watson260881@gmail.com,,,,,,,,,,,,,,,,,,,,,,,,
red_cat6@hotmail.co.uk,,,,,,,,,,,,,,,,,,,,,,,,
rupertrosser5@gmail.com,,,,,,,,,,,,,,,,,,,,,,,,
bobvivian@consultant.com,,,,,,,,,,,,,,,,,,,,,,,,
amanda.l.vincent@btinternet.com,,,,,,,,,,,,,,,,,,,,,,,,
mermaid@251harmony.eclipse.co.uk,,,,,,,,,,,,,,,,,,,,,,,,
uptonaudrey@hotmail.com,,,,,,,,,,,,,,,,,,,,,,,,
ian.r.thompson@talk21.com,,,,,,,,,,,,,,,,,,,,,,,,
dh.sujana@gmail.com,,,,,,,,,,,,,,,,,,,,,,,,
stokeholycross@gmx.com,,,,,,,,,,,,,,,,,,,,,,,,
paulagrierson@hotmail.com,,,,,,,,,,,,,,,,,,,,,,,,
ruth_sidebottom@hotmail.com,,,,,,,,,,,,,,,,,,,,,,,,
pat.scowen@icloud.com,,,,,,,,,,,,,,,,,,,,,,,,
satyagita1@gmail.com,,,,,,,,,,,,,,,,,,,,,,,,
satyadaka@googlemail.com,,,,,,,,,,,,,,,,,,,,,,,,
dh.sarvasiddhi@yorukaze.me.uk,,,,,,,,,,,,,,,,,,,,,,,,
sarvananda6@googlemail.com,,,,,,,,,,,,,,,,,,,,,,,,
sarala2@sky.com,,,,,,,,,,,,,,,,,,,,,,,,
saccaka@outlook.com,,,,,,,,,,,,,,,,,,,,,,,,
s.rust@gmx.net,,,,,,,,,,,,,,,,,,,,,,,,
anroffey@hotmail.com,,,,,,,,,,,,,,,,,,,,,,,,
drookyard@yahoo.co.uk,,,,,,,,,,,,,,,,,,,,,,,,
rijusiddha@gmail.com,,,,,,,,,,,,,,,,,,,,,,,,
redmoon07@googlemail.com,,,,,,,,,,,,,,,,,,,,,,,,
aclemiranda@hotmail.com,,,,,,,,,,,,,,,,,,,,,,,,
jane.polden@ntlworld.com,,,,,,,,,,,,,,,,,,,,,,,,
mphilipps@live.com,,,,,,,,,,,,,,,,,,,,,,,,
dpsculpture@googlemail.com,,,,,,,,,,,,,,,,,,,,,,,,
nicolapeck9876@gmail.com,,,,,,,,,,,,,,,,,,,,,,,,
pressureofpersonality@hotmail.com,,,,,,,,,,,,,,,,,,,,,,,,
nandajaya39@gmail.com,,,,,,,,,,,,,,,,,,,,,,,,
toni.markham@tiscali.co.uk,,,,,,,,,,,,,,,,,,,,,,,,
loveday.anita@yahoo.co.uk,,,,,,,,,,,,,,,,,,,,,,,,
marialowe49@gmail.com,,,,,,,,,,,,,,,,,,,,,,,,
Kontestacja@yahoo.com,,,,,,,,,,,,,,,,,,,,,,,,
adrian.knott@hotmail.co.uk,,,,,,,,,,,,,,,,,,,,,,,,
timtumnus@hotmail.co.uk,,,,,,,,,,,,,,,,,,,,,,,,
shackkent@gmail.com,,,,,,,,,,,,,,,,,,,,,,,,
kalyanamati@googlemail.com,,,,,,,,,,,,,,,,,,,,,,,,
michaelkaye540@virginmedia.com,,,,,,,,,,,,,,,,,,,,,,,,
nickajack@gmail.com,,,,,,,,,,,,,,,,,,,,,,,,
debra.isaac@gmail.com,,,,,,,,,,,,,,,,,,,,,,,,
anna.infanti@btinternet.com,,,,,,,,,,,,,,,,,,,,,,,,
graham@graholly.co.uk,,,,,,,,,,,,,,,,,,,,,,,,
oliverghowlett@yahoo.co.uk,,,,,,,,,,,,,,,,,,,,,,,,
ahoppler@gmx.de,,,,,,,,,,,,,,,,,,,,,,,,
louiseheley@gmail.com,,,,,,,,,,,,,,,,,,,,,,,,
amhelmstetter@gmail.com,,,,,,,,,,,,,,,,,,,,,,,,
wakeupmartin@yahoo.co.uk,,,,,,,,,,,,,,,,,,,,,,,,
majasaro@hotmail.co.uk,,,,,,,,,,,,,,,,,,,,,,,,
jeremyh@dircon.co.uk,,,,,,,,,,,,,,,,,,,,,,,,
heatherfitzsimons@btinternet.com,,,,,,,,,,,,,,,,,,,,,,,,
marisagoulden@yahoo.com,,,,,,,,,,,,,,,,,,,,,,,,
paul.gaskin@live.com,,,,,,,,,,,,,,,,,,,,,,,,
dfulcher7@yahoo.com,,,,,,,,,,,,,,,,,,,,,,,,
gordonfox123@hotmail.com,,,,,,,,,,,,,,,,,,,,,,,,
Fitzgeraldmaureen@hotmail.com,,,,,,,,,,,,,,,,,,,,,,,,
finduncan@hotmail.com,,,,,,,,,,,,,,,,,,,,,,,,
ellendrew@live.com,,,,,,,,,,,,,,,,,,,,,,,,
jendisney@ntlworld.com,,,,,,,,,,,,,,,,,,,,,,,,
cooperd79@googlemail.com,,,,,,,,,,,,,,,,,,,,,,,,
samcottiss@hotmail.co.uk,,,,,,,,,,,,,,,,,,,,,,,,
tjcoldicott@btinternet.com,,,,,,,,,,,,,,,,,,,,,,,,
alisonb.clark@btinternet.com,,,,,,,,,,,,,,,,,,,,,,,,
jackie.cannon@hotmail.co.uk,,,,,,,,,,,,,,,,,,,,,,,,
clairecansick@gmail.com,,,,,,,,,,,,,,,,,,,,,,,,
clairecarlisle@hotmail.com,,,,,,,,,,,,,,,,,,,,,,,,
dh.suryadarshini@gmail.com,,,,,,,,,,,,,,,,,,,,,,,,
tobyb70@gmail.com,,,,,,,,,,,,,,,,,,,,,,,,
kt_brown@hotmail.co.uk,,,,,,,,,,,,,,,,,,,,,,,,
judithbrown444@hotmail.com,,,,,,,,,,,,,,,,,,,,,,,,
pollynick2@aol.com,,,,,,,,,,,,,,,,,,,,,,,,
peterhayes@251harmony.eclipse.co.uk,,,,,,,,,,,,,,,,,,,,,,,,
jennibenstead@yahoo.co.uk,,,,,,,,,,,,,,,,,,,,,,,,
nicolebayes@hotmail.com,,,,,,,,,,,,,,,,,,,,,,,,
jackieacat@hotmail.com,,,,,,,,,,,,,,,,,,,,,,,,
sallyaspin@hotmail.co.uk,,,,,,,,,,,,,,,,,,,,,,,,
bridget.ashley@btinternet.com,,,,,,,,,,,,,,,,,,,,,,,,
amritnectar@ntlworld.com,,,,,,,,,,,,,,,,,,,,,,,,
alokadhara@live.co.uk,,,,,,,,,,,,,,,,,,,,,,,,
stuartadams@keme.co.uk,,,,,,,,,,,,,,,,,,,,,,,,
